…
This data contains four variables: id, group, time, and score

We will use this data to go over some basic functions for data manipulation and cleaning

Tidyverse part 1: Mastering the mutate function

We can combine mutate and group_by to create summary info for each id

dat %>% group_by(id) %>% mutate(mean_score = mean(score))

## Source: local data frame [100 x 5]
## Groups: id [10]
## 
##       id group  time score mean_score
##    <int> <int> <int> <dbl>      <dbl>
## 1      1     0     0 -1.46      -0.13
## 2      1     0     1  1.09      -0.13
## 3      1     0     2 -0.93      -0.13
## 4      1     0     3 -0.18      -0.13
## 5      1     0     4 -2.63      -0.13
## 6      1     0     5  3.36      -0.13
## 7      1     0     6 -0.34      -0.13
## 8      1     0     7 -0.24      -0.13
## 9      1     0     8 -1.18      -0.13
## 10     1     0     9  1.21      -0.13
## # ... with 90 more rows
…
##Here we are creating a variable indicating whether the score is positive or negative 

Let’s combine these techniques to label each person’s average score as positive or negative

dat %>% 
  group_by(id) %>% 
  mutate(mean_score = mean(score)) %>% 
  mutate(pos_neg_mean=ifelse(mean_score < 0, "negative", "positive"))

## Source: local data frame [100 x 6]
## Groups: id [10]
## 
##       id group  time score mean_score pos_neg_mean
##    <int> <int> <int> <dbl>      <dbl>        <chr>
## 1      1     0     0 -1.46      -0.13     negative
## 2      1     0     1  1.09      -0.13     negative
## 3      1     0     2 -0.93      -0.13     negative
## 4      1     0     3 -0.18      -0.13     negative
## 5      1     0     4 -2.63      -0.13     negative
## 6      1     0     5  3.36      -0.13     negative
## 7      1     0     6 -0.34      -0.13     negative
## 8      1     0     7 -0.24      -0.13     negative
## 9      1     0     8 -1.18      -0.13     negative
## 10     1     0     9  1.21      -0.13     negative
## # ... with 90 more rows
…
summary_dat<-dat %>% 
  group_by(id) %>% 
  mutate(mean_score = mean(score)) %>% ##mean
  mutate(var_score = var(score)) %>% ##variance
  mutate(min_score = min(score)) %>% ##max
  mutate(max_score = max(score))     ##min

Tidyverse part 2: Choosing specific columns (select) and rows (filter)

Viewing our summary data, we have a lot of redundant rows containing the same info

summary_dat

## Source: local data frame [100 x 8]
## Groups: id [10]
## 
##       id group  time score mean_score var_score min_score max_score
##    <int> <int> <int> <dbl>      <dbl>     <dbl>     <dbl>     <dbl>
## 1      1     0     0 -1.46      -0.13  2.809356     -2.63      3.36
## 2      1     0     1  1.09      -0.13  2.809356     -2.63      3.36
## 3      1     0     2 -0.93      -0.13  2.809356     -2.63      3.36
## 4      1     0     3 -0.18      -0.13  2.809356     -2.63      3.36
## 5      1     0     4 -2.63      -0.13  2.809356     -2.63      3.36
## 6      1     0     5  3.36      -0.13  2.809356     -2.63      3.36
## 7      1     0     6 -0.34      -0.13  2.809356     -2.63      3.36
## 8      1     0     7 -0.24      -0.13  2.809356     -2.63      3.36
## 9      1     0     8 -1.18      -0.13  2.809356     -2.63      3.36
## 10     1     0     9  1.21      -0.13  2.809356     -2.63      3.36
## # ... with 90 more rows

If we only want to view our summary variables, first we can select them

summary_dat %>% select(id, mean_score:max_score)

## Source: local data frame [100 x 5]
## Groups: id [10]
## 
##       id mean_score var_score min_score max_score
##    <int>      <dbl>     <dbl>     <dbl>     <dbl>
## 1      1      -0.13  2.809356     -2.63      3.36
## 2      1      -0.13  2.809356     -2.63      3.36
## 3      1      -0.13  2.809356     -2.63      3.36
## 4      1      -0.13  2.809356     -2.63      3.36
## 5      1      -0.13  2.809356     -2.63      3.36
## 6      1      -0.13  2.809356     -2.63      3.36
## 7      1      -0.13  2.809356     -2.63      3.36
## 8      1      -0.13  2.809356     -2.63      3.36
## 9      1      -0.13  2.809356     -2.63      3.36
## 10     1      -0.13  2.809356     -2.63      3.36
## # ... with 90 more rows
…
