Tidy Tutorial 2: Importing and manipulating data | PJR
…
This data contains four variables: id, group, time, and score

We will use this data to go over some basic functions for data manipulation and cleaning

Tidyverse part 1: Mastering the mutate function

We can combine mutate and group_by to create summary info for each id

dat %>% group_by(id) %>% mutate(mean_score = mean(score))

## Source: local data frame [100 x 5]
## Groups: id [10]
## 
## # A tibble: 100 x 5
##       id group  time score mean_score
##    <int> <int> <int> <dbl>      <dbl>
##  1     1     0     0 -1.6       -0.17
##  2     1     0     1 -0.07      -0.17
##  3     1     0     2  1.13      -0.17
##  4     1     0     3 -0.9       -0.17
##  5     1     0     4 -1.68      -0.17
##  6     1     0     5  0.05      -0.17
##  7     1     0     6 -0.41      -0.17
##  8     1     0     7  1.45      -0.17
##  9     1     0     8  2.04      -0.17
## 10     1     0     9 -1.71      -0.17
## # … with 90 more rows
…
##Here we are creating a variable indicating whether the score is positive or negative 

Let’s combine these techniques to label each person’s average score as positive or negative

dat %>% 
  group_by(id) %>% 
  mutate(mean_score = mean(score)) %>% 
  mutate(pos_neg_mean=ifelse(mean_score < 0, "negative", "positive"))

## Source: local data frame [100 x 6]
## Groups: id [10]
## 
## # A tibble: 100 x 6
##       id group  time score mean_score pos_neg_mean
##    <int> <int> <int> <dbl>      <dbl> <chr>       
##  1     1     0     0 -1.6       -0.17 negative    
##  2     1     0     1 -0.07      -0.17 negative    
##  3     1     0     2  1.13      -0.17 negative    
##  4     1     0     3 -0.9       -0.17 negative    
##  5     1     0     4 -1.68      -0.17 negative    
##  6     1     0     5  0.05      -0.17 negative    
##  7     1     0     6 -0.41      -0.17 negative    
##  8     1     0     7  1.45      -0.17 negative    
##  9     1     0     8  2.04      -0.17 negative    
## 10     1     0     9 -1.71      -0.17 negative    
## # … with 90 more rows
…
Tidyverse part 2: Choosing specific columns (select) and rows (filter)

Viewing our summary data, we have a lot of redundant rows containing the same info

summary_dat

## Source: local data frame [100 x 8]
## Groups: id [10]
## 
## # A tibble: 100 x 8
##       id group  time score mean_score var_score min_score max_score
##    <int> <int> <int> <dbl>      <dbl>     <dbl>     <dbl>     <dbl>
##  1     1     0     0 -1.6       -0.17      1.84     -1.71      2.04
##  2     1     0     1 -0.07      -0.17      1.84     -1.71      2.04
##  3     1     0     2  1.13      -0.17      1.84     -1.71      2.04
##  4     1     0     3 -0.9       -0.17      1.84     -1.71      2.04
##  5     1     0     4 -1.68      -0.17      1.84     -1.71      2.04
##  6     1     0     5  0.05      -0.17      1.84     -1.71      2.04
##  7     1     0     6 -0.41      -0.17      1.84     -1.71      2.04
##  8     1     0     7  1.45      -0.17      1.84     -1.71      2.04
##  9     1     0     8  2.04      -0.17      1.84     -1.71      2.04
## 10     1     0     9 -1.71      -0.17      1.84     -1.71      2.04
## # … with 90 more rows

If we only want to view our summary variables, first we can select them

summary_dat %>% select(id, mean_score:max_score)

## Source: local data frame [100 x 5]
## Groups: id [10]
## 
## # A tibble: 100 x 5
##       id mean_score var_score min_score max_score
##    <int>      <dbl>     <dbl>     <dbl>     <dbl>
##  1     1      -0.17      1.84     -1.71      2.04
##  2     1      -0.17      1.84     -1.71      2.04
##  3     1      -0.17      1.84     -1.71      2.04
##  4     1      -0.17      1.84     -1.71      2.04
##  5     1      -0.17      1.84     -1.71      2.04
##  6     1      -0.17      1.84     -1.71      2.04
##  7     1      -0.17      1.84     -1.71      2.04
##  8     1      -0.17      1.84     -1.71      2.04
##  9     1      -0.17      1.84     -1.71      2.04
## 10     1      -0.17      1.84     -1.71      2.04
## # … with 90 more rows
…
