Tidy Tutorial 1: Creating some data | PJR
…
Alright, we have now created a tibble (saved as “dat”). It consists of 2 columns and 100 rows

Tidyverse part 1: The pipe operator and the ‘select’ + ‘arrange’ functions

Let’s say we want var1 to be our ID variable, so that 1-10 each represent a unique individual

To do this, we can start by changing the name of “var1” to “id”" within the select function

dat<-dat %>% select(id=var1, var2) 
#Here we are introducing the pipe ' %>% 'operator

dat

## # A tibble: 100 x 2
##       id  var2
##    <dbl> <dbl>
##  1     1     0
##  2     2     1
##  3     3     0
##  4     4     1
##  5     5     0
##  6     6     1
##  7     7     0
##  8     8     1
##  9     9     0
## 10    10     1
## # … with 90 more rows

We can also change the name of var2 in a similar manner: let’s name it “group”, which will act as a binary variable

dat<-dat %>% select(id, group=var2) 
#Notice that the new name comes first in the expression 

dat

## # A tibble: 100 x 2
##       id group
##    <dbl> <dbl>
##  1     1     0
##  2     2     1
##  3     3     0
##  4     4     1
##  5     5     0
##  6     6     1
##  7     7     0
##  8     8     1
##  9     9     0
## 10    10     1
## # … with 90 more rows

Ok, now let’s say we want to rearrange our id column so that each individuals rows are ‘stacked’ on top of each other

dat<-dat %>% arrange(id)   
#This is the arrange function

dat     

## # A tibble: 100 x 2
##       id group
##    <dbl> <dbl>
##  1     1     0
##  2     1     0
##  3     1     0
##  4     1     0
##  5     1     0
##  6     1     0
##  7     1     0
##  8     1     0
##  9     1     0
## 10     1     0
## # … with 90 more rows
…
Alright, now lets create a continuous random variable called ‘score’, grouped within people

dat<-dat_grouped %>%  
  group_by(id) %>%                            
  mutate(score = rnorm(10, 0, 1.5)) %>%      
  mutate(score=round(score, 2))      

#You can stack mutate functions vertically for better readability

dat                                  

## Source: local data frame [100 x 4]
## Groups: id [10]
## 
## # A tibble: 100 x 4
##       id group  time score
##    <dbl> <dbl> <int> <dbl>
##  1     1     0     0 -0.62
##  2     1     0     1 -0.82
##  3     1     0     2 -1.02
##  4     1     0     3 -2.92
##  5     1     0     4  1.8 
##  6     1     0     5 -1.8 
##  7     1     0     6 -0.47
##  8     1     0     7  2.56
##  9     1     0     8  0   
## 10     1     0     9  3.09
## # … with 90 more rows
…
